Study statistics: 
  Number of finished trials: 5
  Number of pruned trials: 0
  Number of complete trials: 5
Best trial:
  Value: 56.55383333333333
    KL_coef: 0.3271776224372753
    weight_decay: 0.037200697114240296

