Study statistics: 
  Number of finished trials: 1
  Number of pruned trials: 0
  Number of complete trials: 1
Best trial:
  Value: 9.789000000000001
    KL_coef: 0.78
    weight_decay: 0.0009

