Study statistics: 
  Number of finished trials: 6
  Number of pruned trials: 0
  Number of complete trials: 6
Best trial:
  Value: 91.45966666666668
    KL_coef: 0.08606100974887193
    weight_decay: 0.016745411867254714

