Study statistics: 
  Number of finished trials: 6
  Number of pruned trials: 0
  Number of complete trials: 6
Best trial:
  Value: 80.68573333333333
    KL_coef: 0.07318407506186513
    weight_decay: 0.0014596041897598255

