Study statistics: 
  Number of finished trials: 5
  Number of pruned trials: 0
  Number of complete trials: 5
Best trial:
  Value: 17.895266666666668
    KL_coef: 0.15235851604825545
    weight_decay: 0.02535649708860966

