Study statistics: 
  Number of finished trials: 1
  Number of pruned trials: 0
  Number of complete trials: 1
Best trial:
  Value: 16.185866666666666
    KL_coef: 0.05
    weight_decay: 0.005

