Study statistics: 
  Number of finished trials: 1
  Number of pruned trials: 0
  Number of complete trials: 1
Best trial:
  Value: 80.16156666666667
    KL_coef: 1.0
    weight_decay: 0.0001

