Study statistics: 
  Number of finished trials: 8
  Number of pruned trials: 0
  Number of complete trials: 8
Best trial:
  Value: 82.66226666666667
    KL2_coef: 0.3489245288196212
    weight_decay: 0.03196616906748078

