Study statistics: 
  Number of finished trials: 5
  Number of pruned trials: 0
  Number of complete trials: 5
Best trial:
  Value: 55.629033333333325
    KL_coef: 1.218924534121582
    weight_decay: 0.003822642214096509

