Study statistics: 
  Number of finished trials: 1
  Number of pruned trials: 0
  Number of complete trials: 1
Best trial:
  Value: 54.75333333333333
    KL2_coef: 0.5
    weight_decay: 0.005

