Study statistics: 
  Number of finished trials: 5
  Number of pruned trials: 0
  Number of complete trials: 5
Best trial:
  Value: 62.21286666666666
    KL_coef: 0.6623294028118618
    weight_decay: 0.020271525749926623

