Study statistics: 
  Number of finished trials: 5
  Number of pruned trials: 0
  Number of complete trials: 5
Best trial:
  Value: 82.72236666666667
    KL2_coef: 2.6997457032125056
    weight_decay: 0.03591755230112128

