Study statistics: 
  Number of finished trials: 1
  Number of pruned trials: 0
  Number of complete trials: 1
Best trial:
  Value: 41.693333333333335
    KL2_coef: 0.02
    weight_decay: 0.0002

