Study statistics: 
  Number of finished trials: 5
  Number of pruned trials: 0
  Number of complete trials: 5
Best trial:
  Value: 33.86416666666667
    KL2_coef: 0.19561057831659492
    weight_decay: 0.0020836921498756504

