Study statistics: 
  Number of finished trials: 1
  Number of pruned trials: 0
  Number of complete trials: 1
Best trial:
  Value: 78.66253333333333
    KL2_coef: 10.0
    weight_decay: 0.05

