Study statistics: 
  Number of finished trials: 6
  Number of pruned trials: 0
  Number of complete trials: 6
Best trial:
  Value: 91.74346666666668
    KL2_coef: 0.06515980858310617
    weight_decay: 0.015528583214043979

