Study statistics: 
  Number of finished trials: 5
  Number of pruned trials: 0
  Number of complete trials: 5
Best trial:
  Value: 61.384866666666674
    KL_coef: 0.9064145607701608
    weight_decay: 0.00596098103177667

