Study statistics: 
  Number of finished trials: 6
  Number of pruned trials: 0
  Number of complete trials: 6
Best trial:
  Value: 89.34966666666666
    KL2_coef: 0.1993281897721136
    weight_decay: 0.0004053579269659547

