Study statistics: 
  Number of finished trials: 5
  Number of pruned trials: 0
  Number of complete trials: 5
Best trial:
  Value: 27.0466
    KL2_coef: 0.13085837117005938
    weight_decay: 0.0003111668431850946

