Study statistics: 
  Number of finished trials: 6
  Number of pruned trials: 0
  Number of complete trials: 6
Best trial:
  Value: 76.89303333333332
    KL_coef: 0.02124499536817424
    weight_decay: 0.0023909906565286825

