Study statistics: 
  Number of finished trials: 5
  Number of pruned trials: 0
  Number of complete trials: 5
Best trial:
  Value: 82.7524
    KL2_coef: 1.8050719293111899
    weight_decay: 0.012764870435554477

