Study statistics: 
  Number of finished trials: 5
  Number of pruned trials: 0
  Number of complete trials: 5
Best trial:
  Value: 64.73693333333334
    KL_coef: 0.699991724081901
    weight_decay: 0.0440182698781662

