Study statistics: 
  Number of finished trials: 5
  Number of pruned trials: 0
  Number of complete trials: 5
Best trial:
  Value: 47.76643333333333
    KL_coef: 0.8998380304533871
    weight_decay: 0.0016732716331611802

