Study statistics: 
  Number of finished trials: 10
  Number of pruned trials: 0
  Number of complete trials: 10
Best trial:
  Value: 85.9642
    KL_coef: 0.06879104325209451
    weight_decay: 0.0005913654876699244

