Study statistics: 
  Number of finished trials: 5
  Number of pruned trials: 0
  Number of complete trials: 5
Best trial:
  Value: 61.3782
    KL2_coef: 0.19360563732166897
    weight_decay: 0.008806753105741399

