Study statistics: 
  Number of finished trials: 5
  Number of pruned trials: 0
  Number of complete trials: 5
Best trial:
  Value: 61.38486666666666
    KL2_coef: 2.197256745297017
    weight_decay: 0.001696421704358217

